{
  "$schema": "http://json-schema.org/draft-07/schema#",
  "$id": "https://gitlab.com/groovox/scrap-core/v1/episode.schema.json",
  "type": "object",
  "properties": {
    "title": {
      "$ref": "./defs.schema.json#/definitions/uniqueStringArray"
    },
    "contentRating": {
      "type": "string"
    },
    "aired": {
      "type": ["string", "null"],
      "format": "date"
    },
    "summary": {
      "type": ["string", "null"]
    },
    "rating": {
      "type": ["number", "null"]
    },
    "directors": {
      "$ref": "./defs.schema.json#/definitions/uniqueStringArray"
    },
    "writers": {
      "$ref": "./defs.schema.json#/definitions/uniqueStringArray"
    }
  },
  "required": ["title", "contentRating", "directors", "writers"]
}
